date	type	coup_id	name	link
2476-04-01	coup	r2475	รัฐประหาร เม.ย. 2476	http://th.wikipedia.org/wiki/%E0%B8%A3%E0%B8%B1%E0%B8%90%E0%B8%9B%E0%B8%A3%E0%B8%B0%E0%B8%AB%E0%B8%B2%E0%B8%A3%E0%B9%83%E0%B8%99%E0%B8%9B%E0%B8%A3%E0%B8%B0%E0%B9%80%E0%B8%97%E0%B8%A8%E0%B9%84%E0%B8%97%E0%B8%A2_%E0%B9%80%E0%B8%A1%E0%B8%A9%E0%B8%B2%E0%B8%A2%E0%B8%99_%E0%B8%9E.%E0%B8%A8._2476
2476-06-20	coup	c247604	รัฐประหาร มิ.ย. 2476	http://th.wikipedia.org/wiki/%E0%B8%A3%E0%B8%B1%E0%B8%90%E0%B8%9B%E0%B8%A3%E0%B8%B0%E0%B8%AB%E0%B8%B2%E0%B8%A3%E0%B9%83%E0%B8%99%E0%B8%9B%E0%B8%A3%E0%B8%B0%E0%B9%80%E0%B8%97%E0%B8%A8%E0%B9%84%E0%B8%97%E0%B8%A2_%E0%B8%A1%E0%B8%B4%E0%B8%96%E0%B8%B8%E0%B8%99%E0%B8%B2%E0%B8%A2%E0%B8%99_%E0%B8%9E.%E0%B8%A8._2476
2476-10-11	rebel	c247606	กบฏบวรเดช	https://th.wikipedia.org/wiki/%E0%B8%81%E0%B8%9A%E0%B8%8F%E0%B8%9A%E0%B8%A7%E0%B8%A3%E0%B9%80%E0%B8%94%E0%B8%8A
2476-12-31	election	c247606	การเลือกตั้ง ส.ส. 15 พฤศจิกายน 2476	""
2477-03-02	event	c247606	การสละราชสมบัติของรัชกาลที่ 7	""
2479-08-03	rebel	c247606	กบฏนายสิบ	https://th.wikipedia.org/wiki/%E0%B8%81%E0%B8%9A%E0%B8%8F%E0%B8%99%E0%B8%B2%E0%B8%A2%E0%B8%AA%E0%B8%B4%E0%B8%9A
2480-11-07	election	c247606	การเลือกตั้ง ส.ส. 7 พฤศจิกายน 2480	""
2481-01-29	rebel	c247606	กบฏพระยาทรงสุรเดช	https://th.wikipedia.org/wiki/%E0%B8%81%E0%B8%9A%E0%B8%8F%E0%B8%9E%E0%B8%A3%E0%B8%B0%E0%B8%A2%E0%B8%B2%E0%B8%97%E0%B8%A3%E0%B8%87%E0%B8%AA%E0%B8%B8%E0%B8%A3%E0%B9%80%E0%B8%94%E0%B8%8A
2481-11-12	election	c247606	การเลือกตั้ง ส.ส. 12 พฤศจิกายน 2481	""
2489-01-06	election	c247606	การเลือกตั้ง ส.ส. 6 มกราคม 2489	""
2489-08-05	election	c247606	การเลือกตั้ง ส.ส. 5 สิงหาคม 2489	""
2490-11-08	coup	c247606	รัฐประหาร 2490	http://th.wikipedia.org/wiki/%E0%B8%A3%E0%B8%B1%E0%B8%90%E0%B8%9B%E0%B8%A3%E0%B8%B0%E0%B8%AB%E0%B8%B2%E0%B8%A3%E0%B9%83%E0%B8%99%E0%B8%9B%E0%B8%A3%E0%B8%B0%E0%B9%80%E0%B8%97%E0%B8%A8%E0%B9%84%E0%B8%97%E0%B8%A2_%E0%B8%9E.%E0%B8%A8._2490
2491-01-29	election	c2490	การเลือกตั้ง ส.ส. 29 มกราคม 2491	""
2491-04-06	coup	c2490	รัฐประหาร 2491	http://th.wikipedia.org/wiki/%E0%B8%A3%E0%B8%B1%E0%B8%90%E0%B8%9B%E0%B8%A3%E0%B8%B0%E0%B8%AB%E0%B8%B2%E0%B8%A3%E0%B9%83%E0%B8%99%E0%B8%9B%E0%B8%A3%E0%B8%B0%E0%B9%80%E0%B8%97%E0%B8%A8%E0%B9%84%E0%B8%97%E0%B8%A2_%E0%B8%9E.%E0%B8%A8._2491
2491-10-01	rebel	c2491	กบฏเสนาธิการ	https://th.wikipedia.org/wiki/%E0%B8%81%E0%B8%9A%E0%B8%8F%E0%B9%80%E0%B8%AA%E0%B8%99%E0%B8%B2%E0%B8%98%E0%B8%B4%E0%B8%81%E0%B8%B2%E0%B8%A3
2492-02-26	rebel	c2491	กบฏวังหลวง	https://th.wikipedia.org/wiki/%E0%B8%81%E0%B8%9A%E0%B8%8F%E0%B8%A7%E0%B8%B1%E0%B8%87%E0%B8%AB%E0%B8%A5%E0%B8%A7%E0%B8%87
2492-06-05	election	c2491	การเลือกตั้ง ส.ส. 5 มิถุนายน 2492	""
2494-06-29	rebel	c2491	กบฏแมนฮัตตัน	https://th.wikipedia.org/wiki/%E0%B8%81%E0%B8%9A%E0%B8%8F%E0%B9%81%E0%B8%A1%E0%B8%99%E0%B8%AE%E0%B8%B1%E0%B8%95%E0%B8%95%E0%B8%B1%E0%B8%99
2494-11-29	coup	c2491	รัฐประหาร 2494	http://th.wikipedia.org/wiki/%E0%B8%A3%E0%B8%B1%E0%B8%90%E0%B8%9B%E0%B8%A3%E0%B8%B0%E0%B8%AB%E0%B8%B2%E0%B8%A3%E0%B9%83%E0%B8%99%E0%B8%9B%E0%B8%A3%E0%B8%B0%E0%B9%80%E0%B8%97%E0%B8%A8%E0%B9%84%E0%B8%97%E0%B8%A2_%E0%B8%9E.%E0%B8%A8._2494
2495-02-26	election	c2494	การเลือกตั้ง ส.ส. 26 กุมภาพันธ์ 2495	""
2495-11-10	uprising	c2494	กบฏสันติภาพ	https://th.wikipedia.org/wiki/%E0%B8%81%E0%B8%9A%E0%B8%8F%E0%B8%AA%E0%B8%B1%E0%B8%99%E0%B8%95%E0%B8%B4%E0%B8%A0%E0%B8%B2%E0%B8%9E
2500-02-26	election	c2494	การเลือกตั้ง ส.ส. 26 กุมภาพันธ์ 2500	""
2500-09-16	coup	c2494	รัฐประหาร 2500	http://th.wikipedia.org/wiki/%E0%B8%A3%E0%B8%B1%E0%B8%90%E0%B8%9B%E0%B8%A3%E0%B8%B0%E0%B8%AB%E0%B8%B2%E0%B8%A3%E0%B9%83%E0%B8%99%E0%B8%9B%E0%B8%A3%E0%B8%B0%E0%B9%80%E0%B8%97%E0%B8%A8%E0%B9%84%E0%B8%97%E0%B8%A2_%E0%B8%9E.%E0%B8%A8._2500
2500-12-15	election	c2500	การเลือกตั้ง ส.ส. 15 ธันวาคม 2500	""
2501-10-20	coup	c2500	รัฐประหาร 2501	http://th.wikipedia.org/wiki/%E0%B8%A3%E0%B8%B1%E0%B8%90%E0%B8%9B%E0%B8%A3%E0%B8%B0%E0%B8%AB%E0%B8%B2%E0%B8%A3%E0%B9%83%E0%B8%99%E0%B8%9B%E0%B8%A3%E0%B8%B0%E0%B9%80%E0%B8%97%E0%B8%A8%E0%B9%84%E0%B8%97%E0%B8%A2_%E0%B8%9E.%E0%B8%A8._2501
2507-12-01	rebel	c2501	กบฏ พ.ศ. 2507	https://th.wikipedia.org/wiki/%E0%B8%81%E0%B8%9A%E0%B8%8F_%E0%B8%9E.%E0%B8%A8._2507
2512-02-10	election	c2501	การเลือกตั้ง ส.ส. 10 กุมภาพันธ์ 2512	""
2514-11-17	coup	c2501	รัฐประหาร 2514	จอมพลถนอม กิตติขจร	จอมพลถนอม กิตติขจร	http://th.wikipedia.org/wiki/%E0%B8%A3%E0%B8%B1%E0%B8%90%E0%B8%9B%E0%B8%A3%E0%B8%B0%E0%B8%AB%E0%B8%B2%E0%B8%A3%E0%B9%83%E0%B8%99%E0%B8%9B%E0%B8%A3%E0%B8%B0%E0%B9%80%E0%B8%97%E0%B8%A8%E0%B9%84%E0%B8%97%E0%B8%A2_%E0%B8%9E.%E0%B8%A8._2514
2516-10-14	uprising	c2514	เหตุการณ์ 14 ตุลา (วันมหาวิปโยค)	https://th.wikipedia.org/wiki/%E0%B9%80%E0%B8%AB%E0%B8%95%E0%B8%B8%E0%B8%81%E0%B8%B2%E0%B8%A3%E0%B8%93%E0%B9%8C_14_%E0%B8%95%E0%B8%B8%E0%B8%A5%E0%B8%B2
2518-01-26	election	c2514	การเลือกตั้ง ส.ส. 26 มกราคม 2518	""
2519-04-04	election	c2514	การเลือกตั้ง ส.ส. 4 เมษายน 2519		""
2519-10-06	coup/uprising	c2514	เหตุการณ์ 6 ตุลา / รัฐประหาร 2519	https://th.wikipedia.org/wiki/%E0%B9%80%E0%B8%AB%E0%B8%95%E0%B8%B8%E0%B8%81%E0%B8%B2%E0%B8%A3%E0%B8%93%E0%B9%8C_6_%E0%B8%95%E0%B8%B8%E0%B8%A5%E0%B8%B2
2520-03-26	rebel	c2519	กบฏ 26 มีนาคม พ.ศ. 2520	https://th.wikipedia.org/wiki/%E0%B8%81%E0%B8%9A%E0%B8%8F_26_%E0%B8%A1%E0%B8%B5%E0%B8%99%E0%B8%B2%E0%B8%84%E0%B8%A1_%E0%B8%9E.%E0%B8%A8._2520
2520-10-20	coup	c2519	รัฐประหาร 2520	http://th.wikipedia.org/wiki/%E0%B8%A3%E0%B8%B1%E0%B8%90%E0%B8%9B%E0%B8%A3%E0%B8%B0%E0%B8%AB%E0%B8%B2%E0%B8%A3%E0%B9%83%E0%B8%99%E0%B8%9B%E0%B8%A3%E0%B8%B0%E0%B9%80%E0%B8%97%E0%B8%A8%E0%B9%84%E0%B8%97%E0%B8%A2_%E0%B8%9E.%E0%B8%A8._2520
2522-04-22	election	c2520	การเลือกตั้ง ส.ส. 22 เมษายน 2522	""
2524-04-01	rebel	c2520	กบฏยังเติร์ก	https://th.wikipedia.org/wiki/%E0%B8%81%E0%B8%9A%E0%B8%8F%E0%B8%A2%E0%B8%B1%E0%B8%87%E0%B9%80%E0%B8%95%E0%B8%B4%E0%B8%A3%E0%B9%8C%E0%B8%81
2526-04-18	election	c2520	การเลือกตั้ง ส.ส. 18 เมษายน 2526	""
2528-09-09	rebel	c2520	กบฏทหารนอกราชการ	https://th.wikipedia.org/wiki/%E0%B8%81%E0%B8%9A%E0%B8%8F%E0%B8%97%E0%B8%AB%E0%B8%B2%E0%B8%A3%E0%B8%99%E0%B8%AD%E0%B8%81%E0%B8%A3%E0%B8%B2%E0%B8%8A%E0%B8%81%E0%B8%B2%E0%B8%A3
2529-07-27	election	c2520	การเลือกตั้ง ส.ส. 27 กรกฎาคม 2529		""
2531-07-24	election	c2520	การเลือกตั้ง ส.ส. 24 กรกฎาคม 2531	""
2534-02-23	coup	c2520	รัฐประหาร 2534	http://th.wikipedia.org/wiki/%E0%B8%A3%E0%B8%B1%E0%B8%90%E0%B8%9B%E0%B8%A3%E0%B8%B0%E0%B8%AB%E0%B8%B2%E0%B8%A3%E0%B9%83%E0%B8%99%E0%B8%9B%E0%B8%A3%E0%B8%B0%E0%B9%80%E0%B8%97%E0%B8%A8%E0%B9%84%E0%B8%97%E0%B8%A2_%E0%B8%9E.%E0%B8%A8._2534
2535-03-22	election	c2534	การเลือกตั้ง ส.ส. 22 มีนาคม 2535	""
2535-09-13	election	c2534	การเลือกตั้ง ส.ส. 13 กันยายน 2535	""
2535-05-17	uprising	c2534	พฤษภาทมิฬ	https://th.wikipedia.org/wiki/%E0%B8%9E%E0%B8%A4%E0%B8%A9%E0%B8%A0%E0%B8%B2%E0%B8%97%E0%B8%A1%E0%B8%B4%E0%B8%AC
2538-07-02	election	c2534	การเลือกตั้ง ส.ส. 2 กรกฎาคม 2538	""
2539-11-17	election	c2534	การเลือกตั้ง ส.ส. 17 พฤศจิกายน 2539	""
2544-01-06	election	c2534	การเลือกตั้ง ส.ส. 6 มกราคม 2544	""
2548-02-06	election	c2534	การเลือกตั้ง ส.ส. 6 กุมภาพันธ์ 2548	""
2549-01-01	uprising	c2534	การชุมนุมของกลุ่มพันธมิตรฯ	https://th.wikipedia.org/wiki/%E0%B8%81%E0%B8%B2%E0%B8%A3%E0%B8%9B%E0%B8%A3%E0%B8%B0%E0%B8%97%E0%B9%89%E0%B8%A7%E0%B8%87%E0%B8%82%E0%B8%B1%E0%B8%9A%E0%B8%97%E0%B8%B1%E0%B8%81%E0%B8%A9%E0%B8%B4%E0%B8%93_%E0%B8%8A%E0%B8%B4%E0%B8%99%E0%B8%A7%E0%B8%B1%E0%B8%95%E0%B8%A3%E0%B8%AD%E0%B8%AD%E0%B8%81%E0%B8%88%E0%B8%B2%E0%B8%81%E0%B8%95%E0%B8%B3%E0%B9%81%E0%B8%AB%E0%B8%99%E0%B9%88%E0%B8%87
2549-04-02	election	c2534	การเลือกตั้ง ส.ส. 2 เมษายน 2549	""
2549-09-19	coup	c2534	รัฐประหาร 2549	http://th.wikipedia.org/wiki/%E0%B8%A3%E0%B8%B1%E0%B8%90%E0%B8%9B%E0%B8%A3%E0%B8%B0%E0%B8%AB%E0%B8%B2%E0%B8%A3%E0%B9%83%E0%B8%99%E0%B8%9B%E0%B8%A3%E0%B8%B0%E0%B9%80%E0%B8%97%E0%B8%A8%E0%B9%84%E0%B8%97%E0%B8%A2_%E0%B8%9E.%E0%B8%A8._2549
2550-12-23	election	c2549	การเลือกตั้ง ส.ส. 23 ธันวาคม 2550	""
2551-11-24	uprising	c2549	กลุ่มพันธมิตรฯบุกยึดสนามบิน	https://th.wikipedia.org/wiki/%E0%B8%81%E0%B8%B2%E0%B8%A3%E0%B8%9A%E0%B8%B8%E0%B8%81%E0%B8%A2%E0%B8%B6%E0%B8%94%E0%B8%97%E0%B9%88%E0%B8%B2%E0%B8%AD%E0%B8%B2%E0%B8%81%E0%B8%B2%E0%B8%A8%E0%B8%A2%E0%B8%B2%E0%B8%99%E0%B9%83%E0%B8%99%E0%B8%9B%E0%B8%A3%E0%B8%B0%E0%B9%80%E0%B8%97%E0%B8%A8%E0%B9%84%E0%B8%97%E0%B8%A2_%E0%B8%9E.%E0%B8%A8._2551
2553-03-27	uprising	c2549	กลุ่ม นปช. ปิดแยกราชประสงค์	https://th.wikipedia.org/wiki/%E0%B8%81%E0%B8%B2%E0%B8%A3%E0%B8%8A%E0%B8%B8%E0%B8%A1%E0%B8%99%E0%B8%B8%E0%B8%A1%E0%B8%82%E0%B8%AD%E0%B8%87%E0%B9%81%E0%B8%99%E0%B8%A7%E0%B8%A3%E0%B9%88%E0%B8%A7%E0%B8%A1%E0%B8%9B%E0%B8%A3%E0%B8%B0%E0%B8%8A%E0%B8%B2%E0%B8%98%E0%B8%B4%E0%B8%9B%E0%B9%84%E0%B8%95%E0%B8%A2%E0%B8%95%E0%B9%88%E0%B8%AD%E0%B8%95%E0%B9%89%E0%B8%B2%E0%B8%99%E0%B9%80%E0%B8%9C%E0%B8%94%E0%B9%87%E0%B8%88%E0%B8%81%E0%B8%B2%E0%B8%A3%E0%B9%81%E0%B8%AB%E0%B9%88%E0%B8%87%E0%B8%8A%E0%B8%B2%E0%B8%95%E0%B8%B4_%E0%B8%9E.%E0%B8%A8._2553#.E0.B8.81.E0.B8.B2.E0.B8.A3.E0.B9.80.E0.B8.88.E0.B8.A3.E0.B8.88.E0.B8.B2.E0.B8.A3.E0.B8.B0.E0.B8.AB.E0.B8.A7.E0.B9.88.E0.B8.B2.E0.B8.87.E0.B8.A3.E0.B8.B1.E0.B8.90.E0.B8.9A.E0.B8.B2.E0.B8.A5.E0.B8.81.E0.B8.B1.E0.B8.9A.E0.B9.81.E0.B8.81.E0.B8.99.E0.B8.99.E0.B8.B3_.E0.B8.99.E0.B8.9B.E0.B8.8A.
2554-07-03	election	c2549	การเลือกตั้ง ส.ส. 3 กรกฎาคม 2554	https://th.wikipedia.org/wiki/%E0%B8%81%E0%B8%B2%E0%B8%A3%E0%B9%80%E0%B8%A5%E0%B8%B7%E0%B8%AD%E0%B8%81%E0%B8%95%E0%B8%B1%E0%B9%89%E0%B8%87%E0%B8%AA%E0%B8%A1%E0%B8%B2%E0%B8%8A%E0%B8%B4%E0%B8%81%E0%B8%AA%E0%B8%A0%E0%B8%B2%E0%B8%9C%E0%B8%B9%E0%B9%89%E0%B9%81%E0%B8%97%E0%B8%99%E0%B8%A3%E0%B8%B2%E0%B8%A9%E0%B8%8E%E0%B8%A3%E0%B9%84%E0%B8%97%E0%B8%A2%E0%B9%80%E0%B8%9B%E0%B9%87%E0%B8%99%E0%B8%81%E0%B8%B2%E0%B8%A3%E0%B8%97%E0%B8%B1%E0%B9%88%E0%B8%A7%E0%B9%84%E0%B8%9B_%E0%B8%9E.%E0%B8%A8._2554
2556-10-31	uprising	c2549	กลุ่ม กปปส. ปิดกรุงเทพฯ	https://th.wikipedia.org/wiki/%E0%B8%A7%E0%B8%B4%E0%B8%81%E0%B8%A4%E0%B8%95%E0%B8%81%E0%B8%B2%E0%B8%A3%E0%B8%93%E0%B9%8C%E0%B8%81%E0%B8%B2%E0%B8%A3%E0%B9%80%E0%B8%A1%E0%B8%B7%E0%B8%AD%E0%B8%87%E0%B9%84%E0%B8%97%E0%B8%A2_%E0%B8%9E.%E0%B8%A8._2556%E2%80%932557
2557-02-02	election	c2549	การเลือกตั้ง ส.ส. 2 กุมภาพันธ์ 2557	https://th.wikipedia.org/wiki/%E0%B8%81%E0%B8%B2%E0%B8%A3%E0%B9%80%E0%B8%A5%E0%B8%B7%E0%B8%AD%E0%B8%81%E0%B8%95%E0%B8%B1%E0%B9%89%E0%B8%87%E0%B8%AA%E0%B8%A1%E0%B8%B2%E0%B8%8A%E0%B8%B4%E0%B8%81%E0%B8%AA%E0%B8%A0%E0%B8%B2%E0%B8%9C%E0%B8%B9%E0%B9%89%E0%B9%81%E0%B8%97%E0%B8%99%E0%B8%A3%E0%B8%B2%E0%B8%A9%E0%B8%8E%E0%B8%A3%E0%B9%84%E0%B8%97%E0%B8%A2%E0%B9%80%E0%B8%9B%E0%B9%87%E0%B8%99%E0%B8%81%E0%B8%B2%E0%B8%A3%E0%B8%97%E0%B8%B1%E0%B9%88%E0%B8%A7%E0%B9%84%E0%B8%9B_%E0%B8%9E.%E0%B8%A8._2557
2557-05-22	coup	c2549	รัฐประหาร 2557	http://th.wikipedia.org/wiki/%E0%B8%A3%E0%B8%B1%E0%B8%90%E0%B8%9B%E0%B8%A3%E0%B8%B0%E0%B8%AB%E0%B8%B2%E0%B8%A3%E0%B9%83%E0%B8%99%E0%B8%9B%E0%B8%A3%E0%B8%B0%E0%B9%80%E0%B8%97%E0%B8%A8%E0%B9%84%E0%B8%97%E0%B8%A2_%E0%B8%9E.%E0%B8%A8._2557
